{
    "security.workspace.trust.untrustedFiles": "open",
    "security.workspace.trust.enabled": false,

    "terminal.integrated.fontFamily": "monospace",
    "editor.fontFamily": "monospace",
    "editor.fontWeight": 400,
    "window.zoomLevel": 1,

    "extensions.experimental.affinity": {
        "asvetliakov.vscode-neovim": 1
    },
    "vscode-neovim.neovimInitVimPaths.linux": "/home/kigel/.config/nvim/init.lua",
    "keyboard.dispatch": "keyCode",
    "[go]": {
        "editor.defaultFormatter": "golang.go"
    },
    "editor.minimap.enabled": false,
    "workbench.colorTheme": "Gruvbox Dark Medium",
    "zenMode.fullScreen": false,
    "zenMode.showTabs": "single",
    "[html]": {
        "editor.defaultFormatter": "esbenp.prettier-vscode"
    },
    "prettier.tabWidth": 4,
    "[javascript]": {
        "editor.defaultFormatter": "esbenp.prettier-vscode"
    },
    "git.autofetch": true,
    "errorLens.delay": 0,
    "editor.suggestFontSize": 14,
    "zenMode.hideLineNumbers": false,
    "zenMode.hideStatusBar": false,
    "search.showLineNumbers": true,
    "editor.lineNumbers": "relative",
    "explorer.confirmDragAndDrop": false,
    "explorer.confirmDelete": false,
    "prettier.htmlWhitespaceSensitivity": "strict",
    "[css]": {
        "editor.defaultFormatter": "esbenp.prettier-vscode"
    },
    "workbench.colorCustomizations": {},
    "[json]": {
        "editor.defaultFormatter": "esbenp.prettier-vscode"
    },
    "editor.formatOnSave": true,
    "vscode-neovim.revealCursorScrollLine": true,
    "[javascriptreact]": {
        "editor.defaultFormatter": "esbenp.prettier-vscode"
    }
}
